{"total_24h":5,"threats_24h":"0","malicious_24h":"0","suspicious_24h":"0","total_lifetime":5,"threats_lifetime":"0","malicious_lifetime":"0","suspicious_lifetime":"0","unique_ips_lifetime":0,"avg_risk":0,"unique_ips":0,"recent_logs":[{"id":87,"timestamp":"2026-02-04 16:11:29","ip":"127.0.0.1","method":"GET","uri":"\/swift2\/vulnlab\/","payload_hash":"4f53cda18c2baa0c0354bb5f9a3ecbe5ed12ab4d8e11ba873c2f11161202b945","headers":"{\"Host\":\"localhost\",\"User-Agent\":\"Mozilla\\\/5.0 (X11; Linux x86_64; rv:146.0) Gecko\\\/20100101 Firefox\\\/146.0\",\"Accept\":\"text\\\/html,application\\\/xhtml+xml,application\\\/xml;q=0.9,*\\\/*;q=0.8\",\"Accept-Language\":\"en-US,en;q=0.5\",\"Accept-Encoding\":\"gzip, deflate, br, zstd\",\"Connection\":\"keep-alive\",\"Cookie\":\"ajs_anonymous_id=bbce1777-5cef-433e-8873-d073d12746ef; rl_session=RudderEncrypt%3AU2FsdGVkX1%2FFSWZ9mkTfhVS%2Fwe9aL%2FxgGeyeiiCS%2BWkwSH6QAylHXVV59S2UTxj0HGC6hSC%2FEBQmKgbGNw8DSRHp19bfSRjbWziNY%2BsG4fnByjjjHiJwMGVw4C1v4VYTFZ9UMFEeu95uckoyP4M8uA%3D%3D; rl_anonymous_id=RudderEncrypt%3AU2FsdGVkX1%2BqW8pzWx0%2F92coA3LM7Kq%2FhFBQCRyDiIaiu2wm4SLnxRov73Jp10xmumqPVRN2r5SrtfMh%2BpvvVg%3D%3D; rl_page_init_referrer=RudderEncrypt%3AU2FsdGVkX19hMV3uP5cZPfZkWbspfGWySSf890ZJJig%3D; rl_page_init_referring_domain=RudderEncrypt%3AU2FsdGVkX1%2B3V82bylQI852mOY0ID6EHMAp5oFGX5GM%3D; rl_user_id=RudderEncrypt%3AU2FsdGVkX186WXPlny8s%2Buqo8duWmnZMEg4SveeeC59SCq%2F5RAKLZHYJty3BqiTgJB%2FSxelqgmufys%2F5EGG1%2BVQPgUFA84ofUuZ%2F8xGQleTsOZPXubCOn0ZNhL99lUwv63NEhLqg%2Fvys9xtKd%2F14ARIxP82QQqm4uwoli4XFvA4%3D; rl_trait=RudderEncrypt%3AU2FsdGVkX1%2FGi5N7uGYpYlBG4bwUqhLm%2B0txNZpfLsHpP0bU3lenyXnrgMyau9%2BxmQlXIz58Ri8IxE0wqK6AbZSfwRKOV4E1%2F%2FX73fx4XpE4fMv7vWPENgtLbsFSzmJGRPvL3nyWVW5ieTDoh2obV2xdqMqk2sZSYG3xe87e8ok%3D; PHPSESSID=g18ckb9c4pjbm9c3e8q6m682tc\",\"Upgrade-Insecure-Requests\":\"1\",\"Sec-Fetch-Dest\":\"document\",\"Sec-Fetch-Mode\":\"navigate\",\"Sec-Fetch-Site\":\"none\",\"Sec-Fetch-User\":\"?1\",\"Priority\":\"u=0, i\"}","payload":"[]","risk_score":0,"classification":"normal","detection_tags":""}],"top_attackers":[],"attack_vectors":[],"top_endpoints":[],"chart_traffic":[{"hour":"15:00","count":1},{"hour":"16:00","count":4}],"chart_threats":[{"classification":"normal","count":5}],"chart_threats_lifetime":[{"classification":"normal","count":5}],"pagination":{"current_page":1,"total_pages":5,"total_logs":5,"limit":1},"debug_info":{"php_tz":"Asia\/Singapore","db_offset":"+07:00","timdiff_raw":"07:00"}}